%YAML 1.1
%TAG !u! tag:unity3d.com,2011:
--- !u!114 &11400000
MonoBehaviour:
  m_ObjectHideFlags: 0
  m_CorrespondingSourceObject: {fileID: 0}
  m_PrefabInstance: {fileID: 0}
  m_PrefabAsset: {fileID: 0}
  m_GameObject: {fileID: 0}
  m_Enabled: 1
  m_EditorHideFlags: 0
  m_Script: {fileID: 11500000, guid: 6ced649596915254da25537f5d7635a3, type: 3}
  m_Name: Team Red
  m_EditorClassIdentifier: 
  gameManager: {fileID: 114884796655784194, guid: a275e0a8643cdf44997a6fb893d5b5b1,
    type: 3}
  teamName: Red
  teamColor: {fileID: 2100000, guid: 4b24761ec733cb64c8ce8d9c043d27c7, type: 2}
  stoneObject: {fileID: 1997877838901240, guid: 1d8b91eb8f7c00a4fad8834b515d9f1a,
    type: 3}
  teamScore: 0
  inningScores: 
